{
    "city": {
        "id": 2643743,
        "name": "London",
        "coord": {
            "lon": -0.12574,
            "lat": 51.50853
        },
        
        
        ......7,
        "grnd_level": 1015.26,
        "humidity": 42,
        "temp_kf": 0.18
    },
    "weather": [
                {
                "id": 804,
                "main": "Clouds",
                "description": "overcast clouds",
                "icon": "04n"
                }
                ],
    "clouds": {
        "all": 88
    },
    "wind": {
        "speed": 5.26,
        "deg": 138.5
    },
    "sys": {
        "pod": "n"
    },
    "dt_txt": "2016-08-02 21:00:00"
},
{
    "dt": 1438560000,
    "main": {
        "temp": 20.95,
        "temp_min": 20.78,
        "temp_max": 20.95,
        "pressure": 1013.3,
        "sea_level": 1023.28,
        "grnd_level": 1013.3,
        "humidity": 43,
        "temp_kf": 0.17
    },
    "weather": [
                {
                "id": 800,
                "main": "Clear",
                "description": "sky is clear",
                "icon": "01n"
                }
                ],
    "clouds": {
        "all": 0
    },
    "wind": {
        "speed": 5.47,
        "deg": 150.005
    },
    "sys": {
        "pod": "n"
    },
    "dt_txt": "2016-08-03 00:00:00"
},
{
    "dt": 1438570800,
    "main": {
        "temp": 18.16,
        "temp_min": 18,
        "temp_max": 18.16,
        "pressure": 1012.82,
        "sea_level": 1022.71,
        "grnd_level": 1012.82,
        "humidity": 56,
        "temp_kf": 0.16
    },
    "weather": [
                {
                "id": 800,
                "main": "Clear",
                "description": "sky is clear",
                "icon": "01n"
                }
                ],
    "clouds": {
        "all": 0
    },
    "wind": {
        "speed": 4.31,
        "deg": 214.007
    },
    "sys": {
        "pod": "n"
    },
    "dt_txt": "2016-08-03 03:00:00"
},
{
    "dt": 1438581600,
    "main": {
        "temp": 16.54,
        "temp_min": 16.39,
        "temp_max": 16.54,
        "pressure": 1013.58,
        "sea_level": 1023.59,
        "grnd_level": 1013.58,
        "humidity": 87,
        "temp_kf": 0.16
    },
    "weather": [
                {
                "id": 802,
                "main": "Clouds",
                "description": "scattered clouds",
                "icon": "03d"
                }
                ],
    "clouds": {
        "all": 32
    },
    "wind": {
        "speed": 4.41,
        "deg": 218.002
    },
    "sys": {
        "pod": "d"
    },
    "dt_txt": "2016-08-03 06:00:00"
},
{
    "dt": 1438592400,
    "main": {
        "temp": 20.81,
        "temp_min": 20.67,
        "temp_max": 20.81,
        "pressure": 1014.39,
        "sea_level": 1024.25,
        "grnd_level": 1014.39,
        "humidity": 72,
        "temp_kf": 0.15
    },
    "weather": [
                {
                "id": 500,
                "main": "Rain",
                "description": "light rain",
                "icon": "10d"
                }
                ],
    "clouds": {
        "all": 56
    },
    "wind": {
        "speed": 5.55,
        "deg": 207.503
    },
    "rain": {
        "3h": 0.03
    },
    "sys": {
        "pod": "d"
    },
    "dt_txt": "2016-08-03 09:00:00"
},
{
    "dt": 1438603200,
    "main": {
        "temp": 22.3,
        "temp_min": 22.17,
        "temp_max": 22.3,
        "pressure": 1014.41,
        "sea_level": 1024.18,
        "grnd_level": 1014.41,
        "humidity": 62,
        "temp_kf": 0.14
    },
    "weather": [
                {
                "id": 803,
                "main": "Clouds",
                "description": "broken clouds",
                "icon": "04d"
                }
                ],
    "clouds": {
        "all": 68
    },
    "wind": {
        "speed": 7.06,
        "deg": 211.004
    },
    "rain": {},
    "sys": {
        "pod": "d"
    },
    "dt_txt": "2016-08-03 12:00:00"
},
{
    "dt": 1438614000,
    "main": {
        "temp": 22.46,
        "temp_min": 22.34,
        "temp_max": 22.46,
        "pressure": 1013.9,
        "sea_level": 1023.73,
        "grnd_level": 1013.9,
        "humidity": 57,
        "temp_kf": 0.13
    },
    "weather": [
                {
                "id": 803,
                "main": "Clouds",
                "description": "broken clouds",
                "icon": "04d"
                }
                ],
    "clouds": {
        "all": 56
    },
    "wind": {
        "speed": 7.67,
        "deg": 216.001
    },
    "rain": {},
    "sys": {
        "pod": "d"
    },
    "dt_txt": "2016-08-03 15:00:00"
},
{
    "dt": 1438624800,
    "main": {
        "temp": 20.86,
        "temp_min": 20.74,
        "temp_max": 20.86,
        "pressure": 1013.2,
        "sea_level": 1023,
        "grnd_level": 1013.2,
        "humidity": 58,
        "temp_kf": 0.12
    },
    "weather": [
                {
                "id": 803,
                "main": "Clouds",
                "description": "broken clouds",
                "icon": "04d"
                }
                ],
    "clouds": {
        "all": 76
    },
    "wind": {
        "speed": 7.28,
        "deg": 211.502
    },
    "rain": {},
    "sys": {
        "pod": "d"
    },
    "dt_txt": "2016-08-03 18:00:00"
},
{
    "dt": 1438635600,
    "main": {
        "temp": 18.13,
        "temp_min": 18.02,
        "temp_max": 18.13,
        "pressure": 1013.68,
        "sea_level": 1023.56,
        "grnd_level": 1013.68,
        "humidity": 61,
        "temp_kf": 0.11
    },
    "weather": [
                {
                "id": 802,
                "main": "Clouds",
                "description": "scattered clouds",
                "icon": "03n"
                }
                ],
    "clouds": {
        "all": 44
    },
    "wind": {
        "speed": 5.45,
        "deg": 220.001
    },
    "rain": {},
    "sys": {
        "pod": "n"
    },
    "dt_txt": "2016-08-03 21:00:00"
},
{
    "dt": 1438646400,
    "main": {
        "temp": 15.56,
        "temp_min": 15.46,
        "temp_max": 15.56,
        "pressure": 1013.52,
        "sea_level": 1023.42,
        "grnd_level": 1013.52,
        "humidity": 80,
        "temp_kf": 0.1
    },
    "weather": [
                {
                "id": 500,
                "main": "Rain",
                "description": "light rain",
                "icon": "10n"
                }
                ],
    "clouds": {
        "all": 12
    },
    "wind": {
        "speed": 4.9,
        "deg": 223.001
    },
    "rain": {
        "3h": 0.11
    },
    "sys": {
        "pod": "n"
    },
    "dt_txt": "2016-08-04 00:00:00"
},
{
    "dt": 1438657200,
    "main": {
        "temp": 13.48,
        "temp_min": 13.4,
        "temp_max": 13.48,
        "pressure": 1013.26,
        "sea_level": 1023.28,
        "grnd_level": 1013.26,
        "humidity": 88,
        "temp_kf": 0.09
    },
    "weather": [
                {
                "id": 802,
                "main": "Clouds",
                "description": "scattered clouds",
                "icon": "03n"
                }
                ],
    "clouds": {
        "all": 36
    },
    "wind": {
        "speed": 4.8,
        "deg": 224.502
    },
    "rain": {},
    "sys": {
        "pod": "n"
    },
    "dt_txt": "2016-08-04 03:00:00"
},
{
    "dt": 1438668000,
    "main": {
        "temp": 14.56,
        "temp_min": 14.49,
        "temp_max": 14.56,
        "pressure": 1013.9,
        "sea_level": 1023.68,
        "grnd_level": 1013.9,
        "humidity": 79,
        "temp_kf": 0.08
    },
    "weather": [
                {
                "id": 500,
                "main": "Rain",
                "description": "light rain",
                "icon": "10d"
                }
                ],
    "clouds": {
        "all": 68
    },
    "wind": {
        "speed": 5.72,
        "deg": 220
    },
    "rain": {
        "3h": 0.01
    },
    "sys": {
        "pod": "d"
    },
    "dt_txt": "2016-08-04 06:00:00"
},
{
    "dt": 1438678800,
    "main": {
        "temp": 18.09,
        "temp_min": 18.02,
        "temp_max": 18.09,
        "pressure": 1014.01,
        "sea_level": 1023.87,
        "grnd_level": 1014.01,
        "humidity": 65,
        "temp_kf": 0.07
    },
    "weather": [
                {
                "id": 803,
                "main": "Clouds",
                "description": "broken clouds",
                "icon": "04d"
                }
                ],
    "clouds": {
        "all": 76
    },
    "wind": {
        "speed": 7.17,
        "deg": 221.504
    },
    "rain": {},
    "sys": {
        "pod": "d"
    },
    "dt_txt": "2016-08-04 09:00:00"
},
{
    "dt": 1438689600,
    "main": {
        "temp": 19.57,
        "temp_min": 19.51,
        "temp_max": 19.57,
        "pressure": 1014.17,
        "sea_level": 1024.09,
        "grnd_level": 1014.17,
        "humidity": 60,
        "temp_kf": 0.06
    },
    "weather": [
                {
                "id": 804,
                "main": "Clouds",
                "description": "overcast clouds",
                "icon": "04d"
                }
                ],
    "clouds": {
        "all": 92
    },
    "wind": {
        "speed": 7.81,
        "deg": 228.001
    },
    "rain": {},
    "sys": {
        "pod": "d"
    },
    "dt_txt": "2016-08-04 12:00:00"
},
{
    "dt": 1438700400,
    "main": {
        "temp": 19.08,
        "temp_min": 19.03,
        "temp_max": 19.08,
        "pressure": 1014.78,
        "sea_level": 1024.78,
        "grnd_level": 1014.78,
        "humidity": 61,
        "temp_kf": 0.05
    },
    "weather": [
                {
                "id": 804,
                "main": "Clouds",
                "description": "overcast clouds",
                "icon": "04d"
                }
                ],
    "clouds": {
        "all": 92
    },
    "wind": {
        "speed": 7.61,
        "deg": 237
    },
    "rain": {},
    "sys": {
        "pod": "d"
    },
    "dt_txt": "2016-08-04 15:00:00"
},
{
    "dt": 1438711200,
    "main": {
        "temp": 18.23,
        "temp_min": 18.19,
        "temp_max": 18.23,
        "pressure": 1015.72,
        "sea_level": 1025.67,
        "grnd_level": 1015.72,
        "humidity": 60,
        "temp_kf": 0.04
    },
    "weather": [
                {
                "id": 804,
                "main": "Clouds",
                "description": "overcast clouds",
                "icon": "04d"
                }
                ],
    "clouds": {
        "all": 92
    },
    "wind": {
        "speed": 6.76,
        "deg": 240.001
    },
    "rain": {},
    "sys": {
        "pod": "d"
    },
    "dt_txt": "2016-08-04 18:00:00"
},
{
    "dt": 1438722000,
    "main": {
        "temp": 16.97,
        "temp_min": 16.94,
        "temp_max": 16.97,
        "pressure": 1017.32,
        "sea_level": 1027.39,
        "grnd_level": 1017.32,
        "humidity": 64,
        "temp_kf": 0.03
    },
    "weather": [
                {
                "id": 803,
                "main": "Clouds",
                "description": "broken clouds",
                "icon": "04n"
                }
                ],
    "clouds": {
        "all": 80
    },
    "wind": {
        "speed": 5.91,
        "deg": 235.002
    },
    "rain": {},
    "sys": {
        "pod": "n"
    },
    "dt_txt": "2016-08-04 21:00:00"
},
{
    "dt": 1438732800,
    "main": {
        "temp": 15.31,
        "temp_min": 15.29,
        "temp_max": 15.31,
        "pressure": 1017.81,
        "sea_level": 1027.9,
        "grnd_level": 1017.81,
        "humidity": 71,
        "temp_kf": 0.02
    },
    "weather": [
                {
                "id": 802,
                "main": "Clouds",
                "description": "scattered clouds",
                "icon": "03n"
                }
                ],
    "clouds": {
        "all": 48
    },
    "wind": {
        "speed": 4.56,
        "deg": 226
    },
    "rain": {},
    "sys": {
        "pod": "n"
    },
    "dt_txt": "2016-08-05 00:00:00"
},
{
    "dt": 1438743600,
    "main": {
        "temp": 13.43,
        "temp_min": 13.42,
        "temp_max": 13.43,
        "pressure": 1017.76,
        "sea_level": 1027.85,
        "grnd_level": 1017.76,
        "humidity": 78,
        "temp_kf": 0.01
    },
    "weather": [
                {
                "id": 802,
                "main": "Clouds",
                "description": "scattered clouds",
                "icon": "03n"
                }
                ],
    "clouds": {
        "all": 32
    },
    "wind": {
        "speed": 3.78,
        "deg": 216.001
    },
    "rain": {},
    "sys": {
        "pod": "n"
    },
    "dt_txt": "2016-08-05 03:00:00"
},
{
    "dt": 1438754400,
    "main": {
        "temp": 13.88,
        "temp_min": 13.88,
        "temp_max": 13.88,
        "pressure": 1018,
        "sea_level": 1027.96,
        "grnd_level": 1018,
        "humidity": 83,
        "temp_kf": 0
    },
    "weather": [
                {
                "id": 500,
                "main": "Rain",
                "description": "light rain",
                "icon": "10d"
                }
                ],
    "clouds": {
        "all": 64
    },
    "wind": {
        "speed": 3.61,
        "deg": 201.002
    },
    "rain": {
        "3h": 0.0375
    },
    "sys": {
        "pod": "d"
    },
    "dt_txt": "2016-08-05 06:00:00"
},
{
    "dt": 1438765200,
    "main": {
        "temp": 16.18,
        "temp_min": 16.18,
        "temp_max": 16.18,
        "pressure": 1017.92,
        "sea_level": 1027.8,
        "grnd_level": 1017.92,
        "humidity": 75,
        "temp_kf": 0
    },
    "weather": [
                {
                "id": 500,
                "main": "Rain",
                "description": "light rain",
                "icon": "10d"
                }
                ],
    "clouds": {
        "all": 80
    },
    "wind": {
        "speed": 4.36,
        "deg": 183.5
    },
    "rain": {
        "3h": 0.1125
    },
    "sys": {
        "pod": "d"
    },
    "dt_txt": "2016-08-05 09:00:00"
},
{
    "dt": 1438776000,
    "main": {
        "temp": 18.56,
        "temp_min": 18.56,
        "temp_max": 18.56,
        "pressure": 1016.73,
        "sea_level": 1026.69,
        "grnd_level": 1016.73,
        "humidity": 66,
        "temp_kf": 0
    },
    "weather": [
                {
                "id": 500,
                "main": "Rain",
                "description": "light rain",
                "icon": "10d"
                }
                ],
    "clouds": {
        "all": 92
    },
    "wind": {
        "speed": 6.06,
        "deg": 185.001
    },
    "rain": {
        "3h": 0.1
    },
    "sys": {
        "pod": "d"
    },
    "dt_txt": "2016-08-05 12:00:00"
},
{
    "dt": 1438786800,
    "main": {
        "temp": 20.09,
        "temp_min": 20.09,
        "temp_max": 20.09,
        "pressure": 1014.95,
        "sea_level": 1024.78,
        "grnd_level": 1014.95,
        "humidity": 58,
        "temp_kf": 0
    },
    "weather": [
                {
                "id": 500,
                "main": "Rain",
                "description": "light rain",
                "icon": "10d"
                }
                ],
    "clouds": {
        "all": 76
    },
    "wind": {
        "speed": 4.56,
        "deg": 188.002
    },
    "rain": {
        "3h": 0.0375
    },
    "sys": {
        "pod": "d"
    },
    "dt_txt": "2016-08-05 15:00:00"
},
{
    "dt": 1438797600,
    "main": {
        "temp": 18.59,
        "temp_min": 18.59,
        "temp_max": 18.59,
        "pressure": 1014.39,
        "sea_level": 1024.17,
        "grnd_level": 1014.39,
        "humidity": 59,
        "temp_kf": 0
    },
    "weather": [
                {
                "id": 500,
                "main": "Rain",
                "description": "light rain",
                "icon": "10d"
                }
                ],
    "clouds": {
        "all": 92
    },
    "wind": {
        "speed": 4.32,
        "deg": 199.506
    },
    "rain": {
        "3h": 0.1125
    },
    "sys": {
        "pod": "d"
    },
    "dt_txt": "2016-08-05 18:00:00"
},
{
    "dt": 1438808400,
    "main": {
        "temp": 16.29,
        "temp_min": 16.29,
        "temp_max": 16.29,
        "pressure": 1013.88,
        "sea_level": 1023.76,
        "grnd_level": 1013.88,
        "humidity": 62,
        "temp_kf": 0
    },
    "weather": [
                {
                "id": 801,
                "main": "Clouds",
                "description": "few clouds",
                "icon": "02n"
                }
                ],
    "clouds": {
        "all": 24
    },
    "wind": {
        "speed": 2.41,
        "deg": 166.508
    },
    "rain": {},
    "sys": {
        "pod": "n"
    },
    "dt_txt": "2016-08-05 21:00:00"
},
{
    "dt": 1438819200,
    "main": {
        "temp": 15.27,
        "temp_min": 15.27,
        "temp_max": 15.27,
        "pressure": 1012.94,
        "sea_level": 1022.87,
        "grnd_level": 1012.94,
        "humidity": 67,
        "temp_kf": 0
    },
    "weather": [
                {
                "id": 803,
                "main": "Clouds",
                "description": "broken clouds",
                "icon": "04n"
                }
                ],
    "clouds": {
        "all": 80
    },
    "wind": {
        "speed": 2.06,
        "deg": 145
    },
    "rain": {},
    "sys": {
        "pod": "n"
    },
    "dt_txt": "2016-08-06 00:00:00"
},
{
    "dt": 1438830000,
    "main": {
        "temp": 13.88,
        "temp_min": 13.88,
        "temp_max": 13.88,
        "pressure": 1012.38,
        "sea_level": 1022.39,
        "grnd_level": 1012.38,
        "humidity": 72,
        "temp_kf": 0
    },
    "weather": [
                {
                "id": 801,
                "main": "Clouds",
                "description": "few clouds",
                "icon": "02n"
                }
                ],
    "clouds": {
        "all": 20
    },
    "wind": {
        "speed": 2.57,
        "deg": 165.501
    },
    "rain": {},
    "sys": {
        "pod": "n"
    },
    "dt_txt": "2016-08-06 03:00:00"
},
{
    "dt": 1438840800,
    "main": {
        "temp": 14.68,
        "temp_min": 14.68,
        "temp_max": 14.68,
        "pressure": 1012.79,
        "sea_level": 1022.74,
        "grnd_level": 1012.79,
        "humidity": 90,
        "temp_kf": 0
    },
    "weather": [
                {
                "id": 500,
                "main": "Rain",
                "description": "light rain",
                "icon": "10d"
                }
                ],
    "clouds": {
        "all": 56
    },
    "wind": {
        "speed": 3.4,
        "deg": 215
    },
    "rain": {
        "3h": 0.025
    },
    "sys": {
        "pod": "d"
    },
    "dt_txt": "2016-08-06 06:00:00"
},
{
    "dt": 1438851600,
    "main": {
        "temp": 19.96,
        "temp_min": 19.96,
        "temp_max": 19.96,
        "pressure": 1013.23,
        "sea_level": 1023.23,
        "grnd_level": 1013.23,
        "humidity": 71,
        "temp_kf": 0
    },
    "weather": [
                {
                "id": 500,
                "main": "Rain",
                "description": "light rain",
                "icon": "10d"
                }
                ],
    "clouds": {
        "all": 64
    },
    "wind": {
        "speed": 5.41,
        "deg": 219.5
    },
    "rain": {
        "3h": 0.025
    },
    "sys": {
        "pod": "d"
    },
    "dt_txt": "2016-08-06 09:00:00"
},
{
    "dt": 1438862400,
    "main": {
        "temp": 21.29,
        "temp_min": 21.29,
        "temp_max": 21.29,
        "pressure": 1014.09,
        "sea_level": 1023.88,
        "grnd_level": 1014.09,
        "humidity": 66,
        "temp_kf": 0
    },
    "weather": [
                {
                "id": 804,
                "main": "Clouds",
                "description": "overcast clouds",
                "icon": "04d"
                }
                ],
    "clouds": {
        "all": 92
    },
    "wind": {
        "speed": 5.92,
        "deg": 221.503
    },
    "rain": {},
    "sys": {
        "pod": "d"
    },
    "dt_txt": "2016-08-06 12:00:00"
},
{
    "dt": 1438873200,
    "main": {
        "temp": 21.23,
        "temp_min": 21.23,
        "temp_max": 21.23,
        "pressure": 1014.6,
        "sea_level": 1024.54,
        "grnd_level": 1014.6,
        "humidity": 64,
        "temp_kf": 0
    },
    "weather": [
                {
                "id": 804,
                "main": "Clouds",
                "description": "overcast clouds",
                "icon": "04d"
                }
                ],
    "clouds": {
        "all": 92
    },
    "wind": {
        "speed": 4.77,
        "deg": 236.001
    },
    "rain": {},
    "sys": {
        "pod": "d"
    },
    "dt_txt": "2016-08-06 15:00:00"
},
{
    "dt": 1438884000,
    "main": {
        "temp": 21.06,
        "temp_min": 21.06,
        "temp_max": 21.06,
        "pressure": 1015.32,
        "sea_level": 1025.19,
        "grnd_level": 1015.32,
        "humidity": 61,
        "temp_kf": 0
    },
    "weather": [
                {
                "id": 803,
                "main": "Clouds",
                "description": "broken clouds",
                "icon": "04d"
                }
                ],
    "clouds": {
        "all": 64
    },
    "wind": {
        "speed": 3.51,
        "deg": 237.502
    },
    "rain": {},
    "sys": {
        "pod": "d"
    },
    "dt_txt": "2016-08-06 18:00:00"
},
{
    "dt": 1438894800,
    "main": {
        "temp": 17.68,
        "temp_min": 17.68,
        "temp_max": 17.68,
        "pressure": 1016.4,
        "sea_level": 1026.45,
        "grnd_level": 1016.4,
        "humidity": 68,
        "temp_kf": 0
    },
    "weather": [
                {
                "id": 803,
                "main": "Clouds",
                "description": "broken clouds",
                "icon": "04n"
                }
                ],
    "clouds": {
        "all": 76
    },
    "wind": {
        "speed": 2,
        "deg": 234.001
    },
    "rain": {},
    "sys": {
        "pod": "n"
    },
    "dt_txt": "2016-08-06 21:00:00"
},
{
    "dt": 1438905600,
    "main": {
        "temp": 14.28,
        "temp_min": 14.28,
        "temp_max": 14.28,
        "pressure": 1016.77,
        "sea_level": 1026.77,
        "grnd_level": 1016.77,
        "humidity": 80,
        "temp_kf": 0
    },
    "weather": [
                {
                "id": 803,
                "main": "Clouds",
                "description": "broken clouds",
                "icon": "04n"
                }
                ],
    "clouds": {
        "all": 76
    },
    "wind": {
        "speed": 1.06,
        "deg": 255.004
    },
    "rain": {},
    "sys": {
        "pod": "n"
    },
    "dt_txt": "2016-08-07 00:00:00"
},
{
    "dt": 1438916400,
    "main": {
        "temp": 12.56,
        "temp_min": 12.56,
        "temp_max": 12.56,
        "pressure": 1016.06,
        "sea_level": 1026.13,
        "grnd_level": 1016.06,
        "humidity": 88,
        "temp_kf": 0
    },
    "weather": [
                {
                "id": 803,
                "main": "Clouds",
                "description": "broken clouds",
                "icon": "04n"
                }
                ],
    "clouds": {
        "all": 76
    },
    "wind": {
        "speed": 1.22,
        "deg": 158.002
    },
    "rain": {},
    "sys": {
        "pod": "n"
    },
    "dt_txt": "2016-08-07 03:00:00"
},
{
    "dt": 1438927200,
    "main": {
        "temp": 13.63,
        "temp_min": 13.63,
        "temp_max": 13.63,
        "pressure": 1016.01,
        "sea_level": 1026.01,
        "grnd_level": 1016.01,
        "humidity": 87,
        "temp_kf": 0
    },
    "weather": [
                {
                "id": 803,
                "main": "Clouds",
                "description": "broken clouds",
                "icon": "04d"
                }
                ],
    "clouds": {
        "all": 68
    },
    "wind": {
        "speed": 1.26,
        "deg": 127.001
    },
    "rain": {},
    "sys": {
        "pod": "d"
    },
    "dt_txt": "2016-08-07 06:00:00"
},
{
    "dt": 1438938000,
    "main": {
        "temp": 19.85,
        "temp_min": 19.85,
        "temp_max": 19.85,
        "pressure": 1016,
        "sea_level": 1025.94,
        "grnd_level": 1016,
        "humidity": 69,
        "temp_kf": 0
    },
    "weather": [
                {
                "id": 803,
                "main": "Clouds",
                "description": "broken clouds",
                "icon": "04d"
                }
                ],
    "clouds": {
        "all": 64
    },
    "wind": {
        "speed": 1.97,
        "deg": 186.5
    },
    "rain": {},
    "sys": {
        "pod": "d"
    },
    "dt_txt": "2016-08-07 09:00:00"
},
{
    "dt": 1438948800,
    "main": {
        "temp": 22.6,
        "temp_min": 22.6,
        "temp_max": 22.6,
        "pressure": 1015.65,
        "sea_level": 1025.4,
        "grnd_level": 1015.65,
        "humidity": 60,
        "temp_kf": 0
    },
    "weather": [
                {
                "id": 803,
                "main": "Clouds",
                "description": "broken clouds",
                "icon": "04d"
                }
                ],
    "clouds": {
        "all": 80
    },
    "wind": {
        "speed": 2.61,
        "deg": 206.503
    },
    "rain": {},
    "sys": {
        "pod": "d"
    },
    "dt_txt": "2016-08-07 12:00:00"
},
{
    "dt": 1438959600,
    "main": {
        "temp": 24.62,
        "temp_min": 24.62,
        "temp_max": 24.62,
        "pressure": 1014.8,
        "sea_level": 1024.69,
        "grnd_level": 1014.8,
        "humidity": 55,
        "temp_kf": 0
    },
    "weather": [
                {
                "id": 800,
                "main": "Clear",
                "description": "sky is clear",
                "icon": "01d"
                }
                ],
    "clouds": {
        "all": 0
    },
    "wind": {
        "speed": 3.91,
        "deg": 204.504
    },
    "rain": {},
    "sys": {
        "pod": "d"
    },
    "dt_txt": "2016-08-07 15:00:00"
},
{
    "dt": 1438970400,
    "main": {
        "temp": 22.59,
        "temp_min": 22.59,
        "temp_max": 22.59,
        "pressure": 1014.92,
        "sea_level": 1024.7,
        "grnd_level": 1014.92,
        "humidity": 49,
        "temp_kf": 0
    },
    "weather": [
                {
                "id": 801,
                "main": "Clouds",
                "description": "few clouds",
                "icon": "02d"
                }
                ],
    "clouds": {
        "all": 12
    },
    "wind": {
        "speed": 5.46,
        "deg": 214.004
    },
    "rain": {},
    "sys": {
        "pod": "d"
    },
    "dt_txt": "2016-08-07 18:00:00"
}
]
}